{
  "cwd": "/home/isma/Development/class/fw7",
  "type": [
    "cordova"
  ],
  "name": "My App",
  "framework": "core",
  "template": "tabs",
  "bundler": false,
  "cssPreProcessor": false,
  "theming": {
    "customColor": true,
    "color": "#007aff",
    "darkTheme": false,
    "iconFonts": true,
    "fillBars": true
  },
  "customBuild": false,
  "pkg": "io.framework7.myapp",
  "cordova": {
    "folder": "cordova",
    "platforms": [
      "android"
    ],
    "plugins": [
      "cordova-plugin-statusbar",
      "cordova-plugin-keyboard",
      "cordova-plugin-splashscreen"
    ]
  }
}